test_subject1005		2
test_subject1062		2
test_subject1085		2
test_subject1103		1
test_subject1111		2
test_subject1116		2
test_subject1139		2
test_subject1222		2
test_subject1246		2
test_subject1304		2
test_subject1345		1
test_subject1359		1
test_subject135		2
test_subject1372		2
test_subject1376		2
test_subject1381		2
test_subject143		1
test_subject1445		1
test_subject1448		2
test_subject1452		2
test_subject145		2
test_subject1483		2
test_subject1487		1
test_subject1488		1
test_subject1506		2
test_subject1539		2
test_subject1572		2
test_subject1586		2
test_subject1590		2
test_subject1613		2
test_subject1620		2
test_subject166		2
test_subject1693		2
test_subject1724		2
test_subject1730		2
test_subject1798		2
test_subject1830		1
test_subject1840		2
test_subject1849		2
test_subject1878		2
test_subject1896		2
test_subject1914		2
test_subject1919		2
test_subject2001		2
test_subject201		2
test_subject2027		2
test_subject2034		2
test_subject2036		1
test_subject2064		2
test_subject2093		2
test_subject2101		2
test_subject211		2
test_subject2154		2
test_subject2180		2
test_subject2183		1
test_subject2186		2
test_subject2196		2
test_subject2270		2
test_subject2277		2
test_subject2284		2
test_subject2285		2
test_subject2286		2
test_subject2317		2
test_subject2336		2
test_subject2359		2
test_subject2389		2
test_subject2397		2
test_subject2425		2
test_subject2452		2
test_subject2454		2
test_subject2459		1
test_subject2465		2
test_subject2476		2
test_subject2483		2
test_subject2521		2
test_subject2539		2
test_subject2560		2
test_subject2585		1
test_subject259		2
test_subject25		2
test_subject2607		1
test_subject265		2
test_subject2667		2
test_subject2673		1
test_subject2674		2
test_subject2689		2
test_subject2749		2
test_subject2751		2
test_subject2790		2
test_subject2804		2
test_subject2844		2
test_subject2886		1
test_subject2960		1
test_subject2973		2
test_subject2985		2
test_subject2990		2
test_subject3008		1
test_subject3023		2
test_subject3026		2
test_subject306		2
test_subject3081		2
test_subject3107		2
test_subject3112		2
test_subject3120		2
test_subject315		2
test_subject3172		2
test_subject3175		2
test_subject3185		2
test_subject3214		2
test_subject326		2
test_subject3273		2
test_subject3336		2
test_subject3341		2
test_subject3366		2
test_subject3406		2
test_subject3408		2
test_subject3482		2
test_subject348		2
test_subject3493		2
test_subject351		2
test_subject353		1
test_subject3547		2
test_subject3592		1
test_subject3635		2
test_subject3651		2
test_subject3655		2
test_subject3665		2
test_subject3702		1
test_subject3744		2
test_subject3791		2
test_subject3802		1
test_subject3805		2
test_subject3827		2
test_subject3834		2
test_subject387		2
test_subject3892		2
test_subject3919		2
test_subject3921		1
test_subject3927		2
test_subject3928		2
test_subject395		2
test_subject3986		1
test_subject3988		1
test_subject4034		2
test_subject4053		1
test_subject4116		1
test_subject4139		2
test_subject4188		2
test_subject4227		2
test_subject4255		2
test_subject4261		2
test_subject4276		2
test_subject4291		2
test_subject4293		2
test_subject436		2
test_subject4407		2
test_subject4408		2
test_subject4435		1
test_subject4471		2
test_subject4494		2
test_subject4499		1
test_subject4534		1
test_subject4565		2
test_subject4650		2
test_subject4671		2
test_subject4679		2
test_subject4721		2
test_subject4729		2
test_subject4746		2
test_subject4766		2
test_subject4796		2
test_subject4818		2
test_subject4850		2
test_subject4851		2
test_subject4891		2
test_subject4892		2
test_subject4909		2
test_subject4930		2
test_subject4937		2
test_subject4968		2
test_subject4978		2
test_subject497		1
test_subject4982		1
test_subject499		2
test_subject5005		2
test_subject501		2
test_subject5034		2
test_subject5054		2
test_subject5061		2
test_subject5099		2
test_subject50		2
test_subject513		2
test_subject5209		2
test_subject5266		2
test_subject5288		2
test_subject5355		2
test_subject5366		2
test_subject5413		2
test_subject5489		2
test_subject5525		2
test_subject5550		2
test_subject5563		2
test_subject5566		2
test_subject5601		2
test_subject5603		2
test_subject5688		2
test_subject5689		2
test_subject570		2
test_subject5732		2
test_subject5736		2
test_subject5859		2
test_subject5880		2
test_subject5913		2
test_subject5926		1
test_subject594		1
test_subject5956		2
test_subject5967		2
test_subject5983		2
test_subject5989		1
test_subject6026		2
test_subject6028		2
test_subject6048		2
test_subject6049		2
test_subject6067		1
test_subject6070		1
test_subject6092		1
test_subject6167		2
test_subject6208		2
test_subject6246		1
test_subject625		1
test_subject6267		2
test_subject6305		2
test_subject6308		2
test_subject6364		2
test_subject6436		2
test_subject6459		2
test_subject6469		2
test_subject6491		2
test_subject6498		2
test_subject6514		2
test_subject6558		2
test_subject655		2
test_subject6569		1
test_subject6582		2
test_subject6596		2
test_subject6620		2
test_subject6728		2
test_subject6732		2
test_subject6752		1
test_subject6771		2
test_subject6772		2
test_subject6794		2
test_subject6809		2
test_subject680		2
test_subject6875		2
test_subject6878		2
test_subject6884		2
test_subject6894		2
test_subject6899		2
test_subject6945		2
test_subject6948		2
test_subject6974		2
test_subject7026		1
test_subject7070		2
test_subject7073		2
test_subject7075		1
test_subject7101		2
test_subject7115		2
test_subject7146		2
test_subject7254		2
test_subject7299		2
test_subject7429		1
test_subject7451		2
test_subject7464		2
test_subject7467		2
test_subject7471		2
test_subject748		2
test_subject74		1
test_subject7503		2
test_subject7513		2
test_subject7521		2
test_subject752		2
test_subject7558		2
test_subject7578		2
test_subject7585		2
test_subject759		2
test_subject7609		2
test_subject7685		2
test_subject768		2
test_subject771		2
test_subject7730		2
test_subject7733		2
test_subject773		1
test_subject7756		1
test_subject7775		2
test_subject7776		1
test_subject7829		2
test_subject7864		2
test_subject7878		2
test_subject7921		1
test_subject7934		2
test_subject7938		2
test_subject7987		2
test_subject8020		1
test_subject8039		2
test_subject8049		2
test_subject8078		2
test_subject8103		2
test_subject8142		2
test_subject8159		1
test_subject8168		2
test_subject8195		2
test_subject8276		1
test_subject8293		2
test_subject8320		2
test_subject8349		2
test_subject834		1
test_subject8362		2
test_subject8391		2
test_subject8399		2
test_subject8409		2
test_subject8434		2
test_subject8481		2
test_subject8493		2
test_subject8498		2
test_subject8523		2
test_subject8528		2
test_subject8574		1
test_subject857		2
test_subject8582		2
test_subject8585		2
test_subject8590		1
test_subject861		2
test_subject8648		2
test_subject8662		1
test_subject8710		2
test_subject8720		2
test_subject8773		1
test_subject8777		2
test_subject881		2
test_subject8820		2
test_subject8830		2
test_subject8878		1
test_subject8880		2
test_subject8881		2
test_subject8889		2
test_subject8901		2
test_subject8944		2
test_subject8945		2
test_subject8967		2
test_subject8969		2
test_subject8977		2
test_subject8980		2
test_subject8981		2
test_subject9029		2
test_subject9062		2
test_subject9069		2
test_subject9085		2
test_subject9096		1
test_subject9098		2
test_subject9111		1
test_subject9112		2
test_subject9196		2
test_subject9246		1
test_subject9298		2
test_subject9300		2
test_subject9304		2
test_subject9306		2
test_subject9320		2
test_subject9355		2
test_subject9359		2
test_subject9371		1
test_subject937		2
test_subject9446		2
test_subject9450		2
test_subject9451		1
test_subject9527		2
test_subject952		1
test_subject9533		2
test_subject9549		1
test_subject954		2
test_subject9565		2
test_subject9579		2
test_subject9582		2
test_subject9585		1
test_subject9587		2
test_subject9635		2
test_subject9670		2
test_subject96		2
test_subject9710		1
test_subject9736		2
test_subject9737		2
test_subject974		2
test_subject9766		2
test_subject9791		2
test_subject9802		2
test_subject9840		1
test_subject9866		2
test_subject9879		2
test_subject9942		2
test_subject9985		1
